%YAML 1.1
%TAG !u! tag:unity3d.com,2011:
--- !u!78 &1
TagManager:
  serializedVersion: 2
  tags:
  - VFX
  - Positions
  - GateController
  - ShipModel
  - Light
  - Canvas
  - ComboTMP
  - Level
  - HpBar
  - ShipLevelBar
  - GameScore
  - GlobalScore
  - Evil
  - Good
  - CameraFollow
  - Friend
  - Enemy
  - SheepCount
  - Model
  - Ally
  - Gate
  layers:
  - Default
  - TransparentFX
  - Ignore Raycast
  - 
  - Water
  - UI
  - 
  - 
  - 
  - 
  - 
  - 
  - 
  - 
  - 
  - 
  - 
  - 
  - 
  - 
  - 
  - 
  - 
  - 
  - 
  - 
  - 
  - 
  - 
  - 
  - 
  - 
  m_SortingLayers:
  - name: Default
    uniqueID: 0
    locked: 0
